Section 6 A simple inference strategy | A Ride in Targeted Learning Territory
…
psi_hat_ab <- obs %>% as_tibble  %>%
  mutate(id = (seq_len(n()) - 1) %% iter) %>%
  nest(obs = c(W, A, Y)) %>%
  mutate(est_a = map(obs, ~ compute_irrelevant_estimator(.)),
         est_b = map(obs, ~ compute_iptw(as.matrix(.), Gbar))) %>%
  pivot_longer(c(`est_a`, `est_b`),
               names_to = "type", values_to = "estimates") %>%
  extract(type, "type", "_([ab])$") %>%
  unnest(estimates) %>% select(-obs)

(psi_hat_ab)
#> # A tibble: 2,000 × 4
#>      id type   psi_n  sig_n
#>   <dbl> <chr>  <dbl>  <dbl>
#> 1     0 a     0.140  0.0174
#> 2     0 b     0.0772 0.0546
#> 3     1 a     0.107  0.0169
#> 4     1 b     0.138  0.0541
#> 5     2 a     0.107  0.0172
#> 6     2 b     0.0744 0.0553
#> # … with 1,994 more rows

psi_hat_ab <- psi_hat_ab %>% 
  group_by(id) %>%
  mutate(clt = (psi_n - psi_zero) / sig_n)

(psi_hat_ab)
#> # A tibble: 2,000 × 5
#> # Groups:   id [1,000]
#>      id type   psi_n  sig_n    clt
#>   <dbl> <chr>  <dbl>  <dbl>  <dbl>
#> 1     0 a     0.140  0.0174  3.23 
#> 2     0 b     0.0772 0.0546 -0.109
#> 3     1 a     0.107  0.0169  1.40 
#> 4     1 b     0.138  0.0541  1.01 
#> 5     2 a     0.107  0.0172  1.38 
#> 6     2 b     0.0744 0.0553 -0.159
#> # … with 1,994 more rows
…
