A Ride in Targeted Learning Territory
…
What does the next chunk do?

(sample_from(my_experiment, 3))
#>      W A Y
#> [1,] 0 0 1
#> [2,] 1 1 1
#> [3,] 1 0 1

Characterize entirely the law of my_experiment. Hint:

obs <- sample_from(my_experiment, 1e4)
obs %>% as.tibble %>% group_by(W, A, Y) %>% summarize(how_many = n())
#> # A tibble: 8 x 4
#> # Groups:   W, A [?]
#>       W     A     Y how_many
#>   <int> <int> <int>    <int>
#> 1     0     0     0      826
#> 2     0     0     1      808
#> 3     0     1     0      285
#> 4     0     1     1      556
#> 5     1     0     0      419
#> 6     1     0     1     2665
#> # ... with 2 more rows
…
