A Ride in Targeted Learning Territory
…
The next chunk of code investigates the empirical behaviors of estimators \(\psi_{n}^{a}\) and \(\psi_{n}^{b}\). As explained in Section 5, we first make iter data sets out of the obs data set (second line), then build the estimators on each of them (fourth and fifth lines). After the first series of commands the object psi_hat_ab, a tibble, contains 200 rows and four columns. For each smaller data set (identified by its id), two rows contain the values of either \(\psi_{n}^{a}\) and \(\sqrt{v_{n}^{a}}/\sqrt{n}\) (if type equals a) or \(\psi_{n}^{b}\) and \(\sqrt{v_{n}^{b}}/\sqrt{n}\) (if type equals b).

After the second series of commands, the object psi_hat_ab contains, in addition, the values of the recentered (with respect to \(\psi_{0}\)) and renormalized \(\sqrt{n}/\sqrt{v_{n}^{a}} (\psi_{n}^{a} - \psi_{0})\) and \(\sqrt{n}/\sqrt{v_{n}^{b}} (\psi_{n}^{b} - \psi_{0})\), where \(v_{n}^{a}\) (6.2) and \(v_{n}^{b}\) (6.4) estimate the asymptotic variances of \(\psi_{n}^{a}\) and \(\psi_{n}^{b}\), respectively. Finally, bias_ab reports amounts of bias (at the renormalized scale).

psi_hat_ab <- obs %>% as_tibble() %>%
  mutate(id = (seq_len(n()) - 1) %% iter) %>%
  nest(-id, .key = "obs") %>%
  mutate(est_a = map(obs, ~ compute_irrelevant_estimator(.)),
         est_b = map(obs, ~ compute_iptw(as.matrix(.), Gbar))) %>%
  gather(`est_a`, `est_b`, key = "type", value = "estimates") %>%
  extract(type, "type", "_([ab])$") %>%
  unnest(estimates) %>% select(-obs)

(psi_hat_ab)
#> # A tibble: 200 x 4
#>      id type  psi_n  sig_n
#>   <dbl> <chr> <dbl>  <dbl>
#> 1     0 a     0.130 0.0174
#> 2     1 a     0.126 0.0180
#> 3     2 a     0.112 0.0161
#> 4     3 a     0.116 0.0164
#> 5     4 a     0.110 0.0187
#> 6     5 a     0.140 0.0178
#> # ... with 194 more rows

psi_hat_ab <- psi_hat_ab %>% 
  group_by(id) %>%
  mutate(clt = (psi_n - psi_zero) / sig_n)

(psi_hat_ab)
#> # A tibble: 200 x 5
#> # Groups:   id [100]
#>      id type  psi_n  sig_n   clt
#>   <dbl> <chr> <dbl>  <dbl> <dbl>
#> 1     0 a     0.130 0.0174  2.71
#> 2     1 a     0.126 0.0180  2.40
#> 3     2 a     0.112 0.0161  1.78
#> 4     3 a     0.116 0.0164  2.01
#> 5     4 a     0.110 0.0187  1.42
#> 6     5 a     0.140 0.0178  3.19
#> # ... with 194 more rows
…
